This is TrapCharTse.csv
		CISP TRYPANOSOMIASIS REDUCTION EFFORT, BELES VALLEY, ETHIOPIA
		CHARACTERIZATION OF TSETSE FLY TRAPPING SITES

These data were gathered for an analysis of factors contributing to the rate of tsetse caught in traps.
Data were collected between September 1998 and February 1999.
Data were collected by Dr. Kedir Negash and Adrian Custer for CISP (Commitato Internazionale per lo Sviluppo dei Popoli), 
  an Italian NGO operating in Ethiopia.

*********************************************************************************
* Copyright (c)  2000 Dr. Kedir Negash and Adrian Custer.						*
* Permission is granted to copy, distribute and/or modify this document			*
* under the terms of the GNU Free Documentation License Version 1.1,			*
* or any later version published by the Free Software Foundation,				*
* with the Invariant Sections being as follows:									*
*  	 	the original entire document starting with the line 					*
*   	"This is TrapCharTse.csv", continuing for 174 lines and 				*
*   	ending with the blank line following the row of data 					*
*   	which begins with "13005,130,5,3,19981120"  							*
* This document has no Front-Cover Texts and no Back-Cover Texts.				*
*																				*
* A copy of the license is not included due to space restrictions but can		*
* be obtained from the GNU Software Project (http://www.gnu.org). It is 		*
* entitled "GNU Free Documentation License".									*
*********************************************************************************
* NOTE ON THE LICENSE: Sorry not to allow modifications but these are data,		*
* doesn't make much sense to release them if they can be altered. If you find	*
* errors or some such make a derived document with comments at the begining 	*
* and append this unmodified file at the end.									*
*********************************************************************************

Data are as follows:
id				-An individual number for each trap equal to 100*village number + trap number.
vil				-The number of the village on the left bank (e.g. L5 or L131).
trap			-The number of the trap, lower numbers upstream of higher numbers.
exp				-The expansion group. 1-First ten villages started sept 1997, 2- expansion of March 1998, 3-expansion fall 1998.
date			-The date of visit in YYYYMMDD format.
north			-Northing gathered with Trimble Pathfinder differentially correctable equipment. UTM, Zone 37, Andindan (Ethiopia) datum.
east			-Easting for the same givens.
hae				-Height above ellipsiod, same givens.
msl				-Height above mean sea level, same givens.
diffcorr		-If differential correction was unsuccessful, set to FALSE, otherwise TRUE.
river			-A name for the river, compressed for convienece, note that local nomenclature varies.
b2b				-Width of the river, bank to bank as estimated by the data gatherer.
ed2e			-Width of the river, water edge to water edge. Note this changed with the season so may be iffy.
chSlope      	-Channel slope index, values were [ 4-rapids, 3-steps, 2-riffle, 1-Run, 0-Broad]
leftH         	-Height of left bank (left hand when facing downstream) in meters.
leftSl       	-Slope of left bank (left hand when facing downstream) in degrees (0 is horizontal, 90 is vertical).
rightH        	-Height of right bank (right hand when facing downstream) in meters.
rightSl      	-Slope of right bank (right hand when facing downstream) in degrees (0 is horizontal, 90 is vertical).
rocks         	-Quantity of rocks in the river [ 3-frequent, 2-occaisonal, 1-rare, 0-none ].
vegW         	-Width of the vegetation around the stream. [ 4- river is in a forest, 3- river is buffered by trees, 2- trees form just a gallery along river, 1- few trees, 0- no trees ].
trees         	-Density of trees along the river [ 3-thick, 2- thin, 1- sparse, 0- none].
brush        	-Density of the underbrush along river [ 3- thick, 2- thin, 1- sparse, 0- none].
cont         	-Continutiy of branches over the river [ 5- packed, 4- branches, 3- closed canopy, 2- gaps, 1- a monkey could leap the gap, 0- no continuity].
anthro       	-Anthropogenic land use intensity [ 4- farming (intense), 3- Cattle grazing, 2- Tree plantations, 1- Wood collection along banks, 0- almost no use].
moves        	-Credible evidence that the trap is put in different locations during different seasons, therefore should not use the rest of data.
horz2wat     	-Horizontal distance of the trap to the water's edge.
vert2wat      	-Vertical distance of the trap to the water's edge.
horz2veg      	-Horizontal distance to nearest woody vegetation (over half a meter high).
octWveg       	-Octants with non-grass vegetation within five meters.
octWshelt     	-Octants with low shelter within 5 meters (vegetation or banks), high shelter within 15 meters.
sun           	-Hours in direct sunlight [ 0- 12]
vis        		-Visibility of the trap from the river [ 4- Unlimited, 3- Clear for 15 meters, 2- Moderate, 1- Poor, 0- none (trap hidden by vegetation) ]
presCatl     	-Cattle presence at the site [ 3- watering hole, 2- intense grazing, 1- occasional grazing, 0- no cattle around].
lengDisurb    	-If a watering hole, the length of the river which is distinctly altered by the presence of cattle (usually the banks are erroded and denuded).


The following Tsetse (Glossina tachinoides) catches were also added:
17 fields with dates: sept97--dec98		-number of tsetse caught in that sample.
4 fields of cumulative counts:			-cumulative catches over a period.
7 fileds of ranks:						-rank of the trap in terms of tsetse caught (only applies to the group of 50 traps with valuebased on the tsetse caught.


id,vil,trap,exp,date,north,east,hae,msl,diffcorr,river,b2b,ed2e,chSlope,leftH,leftSl,rightH,rightSl,rocks,vegW,trees,brush,cont,anthro,moves,horz2wat,vert2wat,horz2veg,octWveg,octWshelt,sun,vis,beefMess,lengDisurb,sept97,oct97,nov97beg,nov97end,dec97beg,dec97end,jan98,feb98,mar98,apr98,may98,jun98,jul98,aug98,sep98,oct98,nov98,dec98,cumToT,cumSptOct,cum97,cum98,rnk9:97,rnk10:97,rnk11:97,rnkend11:97,rnk12:97,rnkend12:97,rnk1998,,
501,5,1,1,19990204,1249029.083,216429.164,1029.495,1031.09,TRUE,changur,35,8,4,3,30,6,60,3,3,2,3,0,3,1,4,0.5,2,2,3,4,4,2,,148,53,32,23,17,14,4,3,3,2,2,1,0,0,0,,2,1,305,201,287,18,4,21,15,14,16,11,38,,
502,5,2,1,19990204,1248834.669,216226.051,1029.763,1031.358,TRUE,changur,40,12,0,5,50,5,50,1,2,1,2,0,4,0,3,3,3,1,3,4,2,2,,44,54,45,36,24,9,5,3,2,2,2,1,0,0,0,,2,1,230,98,212,18,45,18,3,2,3,33,38,,
503,5,3,1,19990204,1248604.19,215992.793,1026.042,1027.639,TRUE,changur,30,10,0,5,70,4,60,1,3,1,2,0,4,0,3,1.5,10,0,4,8,3,2,,90,35,54,23,17,10,6,2,1,2,3,2,0,0,3,,0,0,248,125,229,19,20,42,1,14,16,28,34,,
504,5,4,1,19990204,1248576.685,215747.196,1023.428,1025.027,TRUE,changur,40,8,3,4,60,5,40,3,3,2,2,0,3,0,4,2,5,1,3,10,4,3,40,78,50,34,27,18,14,5,4,3,2,2,2,0,0,2,,2,0,243,128,221,22,25,26,10,7,12,11,28,,
505,5,5,1,19990204,1248259.536,215362.804,1021.454,1023.054,TRUE,changur,40,10,0,4,30,4,60,1,1,1,1,0,4,0,1.5,1.5,2,1,3,12,3,3,10,35,84,29,26,19,16,8,4,3,1,1,0,0,4,5,,8,3,246,119,209,37,49,4,20,9,10,6,5,,
601,6,1,1,19990204,1249322.355,217750.617,1047.4,1048.985,TRUE,changur,40,4,3,3,40,3,50,3,3,2,2,0,3,0,20,2,3,1,2,8,4,1,,59,30,18,15,11,9,7,3,2,0,0,1,0,0,4,,5,1,165,89,142,23,36,45,45,40,43,33,22,,
602,6,2,1,19990204,1249193.287,217537.407,1036.065,1037.651,TRUE,changur,40,8,4,5,40,9,60,3,3,2,2,0,3,0,20,3,3,2,4,4,1,1,,35,27,34,27,16,11,7,4,2,2,2,3,0,0,2,,1,1,174,62,150,24,49,47,10,7,21,22,20,,
603,6,3,1,19990204,1249174.357,217292.598,1036.102,1037.69,TRUE,changur,40,8,4,3,40,3,20,3,3,2,3,0,3,0,15,1,4,1,3,10,4,1,,59,38,28,23,20,16,11,5,4,2,2,2,2,0,0,,2,0,214,97,184,30,36,38,23,14,8,6,12,,
604,6,4,1,19990204,1249234.224,217072.555,1036.266,1037.856,TRUE,changur,50,8,4,4,20,3,50,3,3,2,3,0,3,0,12,1,2,4,4,4,4,1,,44,39,21,17,12,8,5,3,2,2,1,0,0,0,0,,0,0,154,83,141,13,45,37,40,36,38,40,50,,
605,6,5,1,19990204,1249227.775,216835.104,1034.091,1035.683,TRUE,changur,70,15,0,5,50,7,50,2,3,2,3,0,3,0,2,4,3,1,4,6,1,0,,67,46,26,20,14,8,6,7,4,3,3,1,0,2,2,,2,0,211,113,181,30,32,32,31,27,31,40,12,,
901,9,1,1,19990125,1251856.061,221342.024,1109.643,1111.203,TRUE,L9wenz,10,1,4,1,40,1,60,0,1,1,1,0,3,0,1,0.5,1,4,2,12,4,3,20,47,38,19,15,10,6,6,5,3,1,2,2,0,0,0,,0,0,154,85,135,19,43,38,44,40,47,48,34,,
902,9,2,1,19990125,1252415.53,221144.643,1180.39,1181.953,FALSE,L9wenz,18,2,0,2,40,3,30,0,2,3,2,5,3,0,2,0.5,1,6,6,6,4,2,,38,26,26,22,15,11,7,3,2,3,2,1,0,0,0,,1,0,157,64,138,19,47,50,31,21,25,22,34,,
903,9,3,1,19990125,1253483.245,220941.412,1031.259,1032.825,FALSE,L9wenz,15,2,4,1.5,40,1.5,60,0,1,1,1,1,3,0,1.5,1,6,0,2,12,3,3,20,85,65,21,17,16,11,5,4,3,1,1,2,0,0,0,,3,0,234,150,215,19,23,10,40,36,21,22,34,,
904,9,4,1,19990125,1253976.424,220706.838,1039.2,1040.768,FALSE,L9wenz,7,1,2,1,60,1,40,0,2,2,2,5,3,0,2,1,2,3,5,9,2,2,,38,27,23,14,11,5,3,3,2,2,2,0,0,0,0,,1,1,132,65,118,14,47,47,37,46,43,50,48,,
905,9,5,1,19990125,1254427.517,220298.388,1124.337,1125.909,FALSE,L9wenz,10,1,0,1,40,3,50,0,2,2,1,5,3,0,3,2,3,8,8,0,2,1,,105,97,23,18,11,7,5,6,4,2,2,1,0,0,1,,0,2,284,202,261,23,15,3,37,34,43,45,22,,
1001,10,1,1,19990126,1252642.708,223262.101,1095.238,1096.783,TRUE,L10wenz,15,4,4,4,40,3,50,0,2,3,3,5,4,0,2,1.5,2,2,6,5,1,1,6,97,73,27,19,14,9,6,4,3,2,2,2,0,0,2,,0,2,262,170,239,23,17,8,26,30,31,33,22,,
1002,10,2,1,19990126,1252892.198,223304.901,1095.076,1096.621,TRUE,L10wenz,15,3,0,3,40,1,50,1,2,2,2,5,3,0,1.5,1,2,2,6,10,4,3,20,61,53,33,25,18,14,9,3,2,3,2,0,0,0,0,,0,1,224,114,204,20,33,21,14,11,12,11,32,,
1003,10,3,1,19990126,1254015.879,222993.565,1078.499,1080.047,TRUE,L10wenz,15,8,0,2,40,1,30,0,2,3,3,5,3,0,2,1,3,6,8,4,3,3,15,145,29,26,19,13,10,4,3,2,2,3,1,0,0,1,,1,0,259,174,242,17,5,46,31,30,36,28,42,,
1004,10,4,1,19990126,1253229.706,224520.453,1087.916,1089.451,TRUE,gebar,40,10,4,6,40,6,60,3,4,3,3,3,3,0,20,2,1.5,6,6,8,4,3,40,76,83,28,22,17,7,5,2,3,2,2,1,0,0,0,,0,0,248,159,233,15,27,6,23,21,16,45,45,,
1005,10,5,1,19990126,1253986.56,223517.074,1076.098,1077.641,TRUE,gebar,30,10,0,6,40,6,60,0,2,2,2,3,3,0,8,4,3,6,8,7,4,3,5,59,48,34,19,14,9,7,5,4,3,3,2,0,0,0,,2,1,210,107,183,27,36,28,10,30,31,33,16,,
2301,23,1,1,19981028,1249298.628,223533.633,1141.06,1142.597,TRUE,aguntu,12,1,2,3,20,3,50,0,2,3,2,5,3,0,4,2,11,0,0,8,3,3,,60,32,31,24,18,15,8,5,3,2,1,1,0,0,2,,1,1,204,92,180,24,34,44,17,13,12,9,20,,
2302,23,2,1,19981028,1249225.446,223280.737,1140.281,1141.819,TRUE,aguntu,21,3.5,3,3,50,1.5,40,1,2,2,2,5,3,0,2.5,1,0.5,1,2,2,2,3,,60,52,45,35,27,17,7,2,2,1,2,1,0,0,0,,2,1,254,112,236,18,34,24,3,3,2,4,38,,
2303,23,3,1,19981028,1249105.415,223047.306,1133.169,1134.709,TRUE,aguntu,12,3.5,1,1.5,20,1.5,40,0,2,3,2,5,3,0,4,1,4,1,4,4,2,3,,118,107,30,21,14,12,6,4,3,2,1,1,0,0,0,,0,0,319,225,302,17,11,2,18,24,31,18,42,,
2304,23,4,1,19981028,1248994.239,222649.481,1128.175,1129.717,TRUE,aguntu,16,2.5,3,2.5,40,4,40,0,2,3,2,5,3,0,3,1.5,4.5,1,2,3,2,3,,57,49,37,30,22,18,8,5,2,2,2,4,0,0,0,,0,0,236,106,213,23,39,27,6,4,5,2,22,,
2305,23,5,1,19981028,1248962.917,222017.478,1117.766,1119.313,TRUE,aguntu,12,3,3,3,30,3,30,0,2,2,3,5,3,0,6.5,1,0.5,4,4,5,3,3,,56,43,40,28,21,15,8,9,5,3,3,2,0,0,2,,0,0,235,99,203,32,41,33,5,6,6,9,8,,
2801,28,1,1,19990122,1247856.498,221768.099,1096.072,1097.616,TRUE,changur,40,10,4,3,60,2,80,3,3,3,3,0,4,0,4,2,3,4,5,4,2,3,20,78,51,27,19,15,10,5,6,4,3,5,2,2,6,2,,2,1,238,129,200,38,25,25,26,30,25,28,3,,
2802,28,2,1,19990122,1248168.04,221604.251,1091.472,1093.018,TRUE,changur,30,12,4,5,70,5,60,3,3,2,3,0,4,1,10,1.5,4,5,5,10,2,3,5,113,27,16,10,8,6,4,4,3,2,3,1,0,0,0,,3,2,202,140,180,22,14,47,48,49,49,48,28,,
2803,28,3,1,19990122,1248177.913,221303.822,1090.117,1091.666,TRUE,changur,45,10,3,3,20,10,50,3,3,2,3,0,4,0,25,1,4,0,4,4,4,2,,76,43,28,23,18,14,5,3,3,2,2,0,0,0,0,,0,0,217,119,202,15,27,33,23,14,12,11,45,,
2804,28,4,1,19990122,1248140.289,220957.533,1087.034,1088.586,TRUE,changur,35,8,3,7,60,4,30,3,3,2,3,0,4,0,25,2,3,1,4,11,3,1,,155,71,25,18,12,9,4,4,5,4,3,2,5,0,4,,1,0,322,226,290,32,3,9,34,34,38,33,8,,
2805,28,5,1,19990122,1248270.348,220761.538,1084.593,1086.146,TRUE,changur,35,10,4,8,40,4,30,3,3,2,3,0,4,0,12,3,4,2,4,8,4,1,,48,33,21,16,15,10,5,2,3,3,3,2,4,5,6,,3,2,181,81,143,38,42,43,40,39,25,28,3,,
2901,29,1,1,19990204,1247110.774,223609.134,1123.834,1125.36,TRUE,changur,100,30,4,3,30,15,60,3,2,1,3,0,3,0,1,0.5,2,1,4,1,4,1,,81,84,25,20,15,11,9,6,3,4,2,2,4,6,4,,4,0,280,165,236,44,24,4,34,27,25,22,1,,
2902,29,2,1,19990204,1247371.37,223435.406,1118.153,1119.682,TRUE,changur,80,3,4,7,30,5,20,3,2,1,2,0,3,0,15,3,2,3,4,8,1,0,,145,59,22,15,12,8,6,5,4,5,2,3,2,2,6,,0,1,297,204,261,36,5,15,39,40,38,40,6,,
2903,29,3,1,19990204,1247671.272,223137.231,1108.606,1110.139,TRUE,changur,60,10,2,5,30,8,40,3,2,1,1,0,3,0,8,1,1,1,4,3,4,3,0,57,40,17,14,10,7,7,3,6,4,1,1,2,0,2,,1,0,172,97,145,27,39,35,47,46,47,45,16,,
2904,29,4,1,19990204,1247631.08,222822.794,1105.743,1107.277,TRUE,changur,50,4,3,4,30,4,20,3,2,2,2,0,4,0,10,1.5,3,3,4,6,4,3,4,88,54,12,9,12,10,5,3,5,2,3,1,3,0,0,,2,2,211,142,185,26,21,18,50,50,38,28,18,,
2905,29,5,1,19990204,1247638.347,222221.9,1096.661,1098.2,TRUE,changur,40,8,3,4,30,4,30,3,2,2,2,0,3,0,10,1,1,3,3,8,4,3,0,131,54,18,12,8,8,7,4,2,2,2,2,4,0,2,,1,0,257,185,231,26,8,18,45,48,49,40,18,,
3001,30,1,1,19990126,1249954.278,219146.483,1063.54,1065.114,TRUE,changur,50,7,0,3,10,7,80,3,4,2,2,0,3,0,30,1,6,3,4,5,4,1,,128,78,34,25,16,11,4,2,2,1,2,1,0,0,4,,5,0,313,206,292,21,9,7,10,11,21,22,30,,
3002,30,2,1,19990126,1249830.9,218687.769,1056.194,1057.772,TRUE,changur,50,12,3,4,40,5,30,3,4,3,2,0,3,0,5,1.5,6,0,3,3,4,1,,68,56,30,30,23,17,6,3,2,2,2,0,0,0,0,,1,0,240,124,224,16,30,17,18,4,4,4,44,,
3003,30,3,1,19990126,1249629.489,218561.99,1051.873,1053.452,TRUE,changur,50,20,0,2,70,4,20,3,4,2,3,0,3,0,5,4,2.5,4,4,4,4,2,,114,47,35,21,15,12,7,2,1,2,1,1,0,0,0,,0,0,258,161,244,14,13,30,9,24,25,18,48,,
3004,30,4,1,19990126,1249623.252,218239.151,1048.647,1050.228,TRUE,changur,50,20,4,6,60,4,50,3,4,2,2,0,3,0,3,1.5,6,1,2,10,4,3,10,99,53,27,17,12,9,6,4,3,1,1,1,0,0,2,,1,2,238,152,217,21,16,21,26,36,38,33,30,,
3005,30,5,1,19990126,1249634.839,217964.324,1047.64,1049.224,TRUE,changur,50,10,3,7,50,6,50,3,4,2,2,0,3,0,5,2,2,3,3,12,4,2,,86,60,36,26,20,14,3,3,2,2,2,2,0,0,2,,1,1,260,146,242,18,22,14,7,9,8,11,38,,
4501,45,1,1,19981028,1248987.829,221532.242,1105.874,1107.425,TRUE,aguntu,24,2.5,3,3,20,2,30,1,2,3,3,5,3,0,2.5,1,2,3,4,1,4,3,,46,36,27,22,21,18,8,2,2,2,2,2,0,0,0,,2,0,190,82,170,20,44,40,26,21,6,2,32,,
4502,45,2,1,19981028,1249042.995,220666.027,1083.721,1085.279,TRUE,aguntu,40,4,2,4,30,5,40,0,2,3,3,5,3,0,4,1.5,5.5,0,4,3,2,3,,115,48,36,21,15,14,9,3,2,2,3,1,0,0,0,,3,0,272,163,249,23,12,28,7,24,25,11,22,,
4503,45,3,1,19981028,1248967.161,220230.607,1076.754,1078.315,TRUE,changur,30,10,4,4,30,5,50,3,3,3,3,0,1,0,5,4,1,2,7,0,1,0,,68,40,21,15,11,9,3,3,2,2,2,0,0,0,0,,3,0,179,108,164,15,30,35,40,40,43,33,45,,
4504,45,4,1,19981028,1249753.773,220979.871,1101.001,1102.559,TRUE,acale,12,3,3,3,40,2,30,1,2,3,3,4,3,0,4,0.5,4,1,7,3,2,3,,76,36,25,15,13,8,6,7,3,3,1,0,0,0,0,,2,1,196,112,173,23,27,40,34,40,36,40,22,,
4505,45,5,1,19981028,1249267.633,220497.885,1086.283,1087.843,TRUE,acale,14,3,3,2,50,1.5,30,0,2,2,3,5,3,0,2,2,1,1,2,2,0,3,,92,58,29,20,19,16,5,7,4,2,2,0,0,0,8,,0,3,265,150,234,31,19,16,20,27,10,6,10,,
13101,131,1,1,19990125,1245218.757,219584.206,1083.66,1085.203,TRUE,intessa,35,1,4,4,60,3,20,3,3,2,3,3,3,0,30,1.5,1.5,1,3,3,3,1,,140,123,32,23,17,12,7,4,2,2,3,2,5,4,6,,5,4,391,263,347,44,7,1,15,14,16,18,1,,
13102,131,2,1,19990125,1245243.246,218904.894,1074.675,1076.223,TRUE,intessa,45,4,4,6,20,6,60,3,2,2,2,0,4,0,3,1.5,3.5,1,5,3,2,1,,121,47,27,23,14,11,6,6,4,3,2,1,2,0,2,,2,2,273,168,243,30,10,30,26,14,31,22,12,,
13103,131,3,1,19981204,1245439.375,218668.453,1082.06,1083.612,TRUE,intessa,25,6,1,7,50,4,50,2,3,2,2,0,1,0,1.5,2,2,5,5,5,3,3,15,185,65,46,43,30,21,9,6,4,2,2,2,0,0,2,,2,0,419,250,390,29,1,10,2,1,1,1,15,,
13104,131,4,1,19981204,1243740.279,217410.365,1083.532,1085.08,TRUE,medemeda,25,4,0,5,30,4,60,0,2,1,3,1,4,0,6,4,4,0,2,10,3,3,20,93,64,29,23,17,13,10,9,4,2,3,3,0,0,0,,3,0,273,157,239,34,18,12,20,14,16,17,7,,
13105,131,5,1,19981204,1243623.35,217221.972,1082.502,1084.05,TRUE,medemeda,30,10,0,3,30,3,30,0,2,2,2,0,3,0,1,1,4,2,5,3,4,0,,166,64,14,15,16,12,6,8,4,3,2,2,0,0,0,,3,3,318,230,287,31,2,12,49,40,21,18,10,,
1101,11,1,2,19990128,1251039.66,225365.171,1110.718,1112.245,TRUE,sasbadi,50,20,4,3,20,1,40,3,3,1,1,0,3,0,3,1,6,0,2,10,4,1,,,,,,,,,,22,18,16,13,4,3,,4,10,4,94,,,,,,,,,,,,
1102,11,2,2,19990128,1251330.461,225333.582,1107.169,1108.696,TRUE,sasbadi,30,2,2,4,40,4,30,3,3,2,2,3,3,0,10,4,2,2,3,6,4,1,,,,,,,,,,18,17,14,12,6,8,,8,2,3,88,,,,,,,,,,,,
1103,11,3,2,19990128,1251967.821,224974.84,1096.091,1097.622,TRUE,sasbadi,35,8,3,4,30,3,20,3,3,2,2,0,3,0,6,1,4,2,5,3,2,1,,,,,,,,,,14,12,13,8,0,2,,3,3,0,55,,,,,,,,,,,,
1104,11,4,2,19990128,1252446.171,224781.312,1093.476,1095.009,TRUE,sasbadi,30,7,3,4,30,3,40,3,3,2,3,3,3,0,0.5,0.5,3,4,5,6,3,3,3,,,,,,,,,15,12,8,10,5,4,,5,0,0,59,,,,,,,,,,,,
1105,11,5,2,19990128,1252717.2,224803.915,1090.267,1091.8,TRUE,sasbadi,30,10,0,3,30,5,50,0,3,2,2,3,3,0,1,1,5,2,4,3,4,2,,,,,,,,,,20,13,12,9,7,9,,7,15,2,94,,,,,,,,,,,,
1201,12,1,2,19990206,1252892.592,228916.524,1120.032,1121.53,TRUE,tafetafe,20,1,4,2,20,2,40,2,2,3,2,5,3,0,2,0.5,2,3,6,4,2,3,6,,,,,,,,,12,8,8,11,2,3,,6,1,4,55,,,,,,,,,,,,
1202,12,2,2,19981110,1253294.381,228583.108,1114.802,1116.302,TRUE,tafetafe,14,12,3,1,50,1,50,3,0,0,0,0,3,0,3,1,15,0,0,10,4,3,20,,,,,,,,,15,12,12,10,4,4,,5,0,0,62,,,,,,,,,,,,
1203,12,3,2,19981103,1253502.308,229291.55,1121.429,1122.923,TRUE,durdursi,20,10,3,4,60,2,50,3,1,1,2,0,3,0,2.5,2,30,0,0,12,2,3,4,,,,,,,,,21,15,14,8,3,2,,3,0,0,66,,,,,,,,,,,,
1204,12,4,2,19990206,1253872.341,228506.03,1110.77,1112.271,TRUE,durdursi,35,4,4,3,30,5,60,2,1,1,1,0,2,0,6,2,5,1,2,10,2,3,4,,,,,,,,,13,16,11,6,4,2,,5,14,0,71,,,,,,,,,,,,
1205,12,5,2,19981110,1253816.705,228326.13,1110.232,1111.735,TRUE,durdursi,30,12,3,6,60,4,35,2,2,2,2,0,3,1,4.5,2,1,3,3,10,3,3,20,,,,,,,,,11,9,14,10,2,5,,3,8,6,68,,,,,,,,,,,,
1301,13,1,2,19990206,1254425.899,232261.866,1139.395,1140.86,TRUE,keteb,50,6,4,5,40,7,50,3,4,2,2,0,3,0,1,1,2,3,4,2,4,3,2,,,,,,,,,18,15,16,6,3,4,,4,20,8,94,,,,,,,,,,,,
1302,13,2,2,19990206,1254537.763,231534.705,1131.116,1132.587,TRUE,keteb,45,10,3,12,70,4,20,3,3,2,2,0,3,0,7,1,1.5,4,4,2,3,3,0,,,,,,,,,16,13,4,8,0,6,,6,4,0,57,,,,,,,,,,,,
1303,13,3,2,19990206,1254031.602,230297.773,1121.172,1122.655,TRUE,keteb,60,7,4,10,40,8,40,3,2,2,2,0,3,0,10,1.5,6,0,4,8,4,0,,,,,,,,,,14,12,12,9,3,4,,8,18,0,80,,,,,,,,,,,,
1304,13,4,2,19990206,1254167.284,229885.061,1120.396,1121.883,TRUE,keteb,45,6,3,5,30,4,30,3,2,2,2,0,3,0,4,2,2,2,4,2,4,3,8,,,,,,,,,12,8,10,10,2,3,,2,13,0,60,,,,,,,,,,,,
1305,13,5,2,19990206,1254505.584,229106.205,1112.59,1114.084,TRUE,keteb,30,10,2,10,50,5,60,3,3,3,2,0,2,0,4,1.5,1,4,4,2,4,0,,,,,,,,,,11,7,8,8,6,11,,3,1,3,58,,,,,,,,,,,,
1401,14,1,2,19990128,1254690.474,225307.974,1085.397,1086.924,TRUE,keteb,45,4,4,6,40,3,60,3,2,1,2,0,3,0,10,2.5,5,1,4,10,4,3,30,,,,,,,,,17,16,12,13,1,2,,4,5,10,80,,,,,,,,,,,,
1402,14,2,2,19990128,1254840.015,225064.571,1082.746,1084.275,TRUE,keteb,50,10,4,7,70,6,50,3,2,1,2,0,3,0,6,1.5,2,2,4,6,4,1,,,,,,,,,,21,24,14,4,3,2,,3,8,1,80,,,,,,,,,,,,
1403,14,3,2,19990128,1255029.801,224729.706,1086.145,1087.677,TRUE,keteb,50,20,3,3,20,4,70,3,2,1,2,0,4,0,10,1.5,2,1,2,8,2,3,10,,,,,,,,,10,15,6,5,5,3,,2,7,0,53,,,,,,,,,,,,
1404,14,4,2,19990128,1255172.839,224335.944,1079.009,1080.543,TRUE,keteb,40,20,2,6,40,6,50,3,2,1,2,0,3,0,2,1.5,30,1,3,12,4,3,20,,,,,,,,,9,12,12,10,2,1,,2,5,0,53,,,,,,,,,,,,
1405,14,5,2,19990128,1255131.649,224082.851,1081.639,1083.176,TRUE,keteb,35,10,2,6,50,4,60,3,2,2,2,0,3,0,3,2,3,2,2,4,4,3,10,,,,,,,,,11,8,14,12,0,1,,4,6,4,60,,,,,,,,,,,,
2401,24,1,2,19981107,1258873.336,233992.807,1181.061,1182.492,TRUE,ali,6,3,2,1,20,1,20,0,2,3,3,5,3,1,2,0.2,0.5,3,5,2,2,3,50,,,,,,,,,,,,,,,,,,,0,,,,,,,,,,,,
2402,24,2,2,19981107,1258535.926,233399.759,1172.443,1173.882,TRUE,ali,6,3,4,1,50,1,20,0,2,3,3,5,4,1,2,1,1,1,3,0,2,3,50,,,,,,,,,,,,,,,,,,,0,,,,,,,,,,,,
2403,24,3,2,19981107,1258587.626,232726.286,1164.308,1165.752,TRUE,ali,6,3,2,1,30,1,20,0,2,3,3,5,3,1,1,0.5,1,2,5,10,1,3,20,,,,,,,,,,,,,,,,,,,0,,,,,,,,,,,,
2404,24,4,2,19981107,1258577.714,231676.929,1157.567,1159.022,TRUE,ali,6,3,3,1,40,4,30,0,3,2,3,5,3,1,1,1,0.5,2,6,0,2,3,25,,,,,,,,,,,,,,,,,,,0,,,,,,,,,,,,
2405,24,5,2,19981107,1258536.449,231423.831,1154.869,1156.326,TRUE,ali,10,4,3,1,60,1,30,1,3,3,3,4,3,1,1.5,1,0.5,4,7,2,1,3,10,,,,,,,,,,,,,,,,,,,0,,,,,,,,,,,,
2406,24,6,2,19981106,1256505.186,234248.593,1159.906,1161.347,FALSE,chari,20,6,4,2,20,2,50,3,2,2,3,2,3,1,3,0.5,3,2,5,4,2,3,30,,,,,,,,,,,,,,,,,,,0,,,,,,,,,,,,
2407,24,7,2,19981106,1256482.279,233845.839,1149.063,1150.507,FALSE,chari,20,6,4,5,30,3,40,2,3,2,3,4,3,1,0.5,0.2,0.5,5,5,0,2,3,30,,,,,,,,,,,,,,,,,,,0,,,,,,,,,,,,
2408,24,8,2,19981106,1256374.724,233594.152,1201.948,1203.394,FALSE,chari,20,8,4,3,50,3,50,1,2,3,2,3,3,1,1,0.5,1,3,6,8,2,3,30,,,,,,,,,,,,,,,,,,,0,,,,,,,,,,,,
2409,24,9,2,19981106,1256476.261,232691.077,1010.624,1012.079,FALSE,chari,20,8,3,3,30,1,40,3,2,2,3,3,3,1,0.5,0,2,4,8,0,4,3,50,,,,,,,,,,,,,,,,,,,0,,,,,,,,,,,,
2410,24,10,2,19981106,1256859.48,231959.2,1237.295,1238.755,FALSE,chari,20,10,4,2,60,2,60,2,2,2,2,3,3,1,0.5,0.5,0.5,5,7,0,1,3,50,,,,,,,,,,,,,,,,,,,0,,,,,,,,,,,,
2601,26,1,2,19990202,1261241.485,228875.12,1100.311,1101.778,TRUE,gilgelN,100,9,0,15,40,10,30,3,2,2,2,0,3,0,4,0.5,3,2,3,8,4,1,,,,,57,,38,,33,12,7,4,3,2,2,,4,7,6,175,,,,,,,,,,,,
2602,26,2,2,19990202,1261464.361,228569.206,1097.659,1099.127,TRUE,gilgelN,100,10,3,15,40,6,40,3,2,2,2,0,3,0,2,0.5,1.5,3,3,8,4,3,0,,,,58,,48,,34,18,18,12,8,0,1,,3,5,2,207,,,,,,,,,,,,
2603,26,3,2,19990202,1261559.103,228418.994,1100.042,1101.511,TRUE,gilgelN,60,9,2,9,70,6,50,3,3,3,2,0,1,0,4,0.5,2,3,4,4,2,0,,,,,51,,22,,22,7,6,8,4,5,2,,3,3,0,133,,,,,,,,,,,,
2604,26,4,2,19990202,1261759.362,228124.479,1096.397,1097.868,TRUE,gilgelN,60,10,1,15,60,12,50,3,2,3,2,0,0,0,5,1,3,3,4,8,2,1,,,,,42,,31,,19,5,4,3,5,3,3,,6,2,0,123,,,,,,,,,,,,
2605,26,5,2,19990202,1261971.807,227969.248,1097.744,1099.215,TRUE,gilgelN,55,20,0,8,40,8,50,1,1,3,2,0,3,0,0.5,0.5,0.5,4,4,4,3,3,5,,,,39,,50,,31,9,8,4,4,2,6,,8,13,7,181,,,,,,,,,,,,
1501,15,1,3,19990201,1256730.754,224102.35,1082.271,1083.805,TRUE,chari,25,4,4,6,50,4,40,3,2,3,2,4,3,0,4,2,1,2,5,5,3,1,,,,,,,,,,14,18,12,8,4,4,12,14,20,11,117,,,,,,,,,,,,
1502,15,2,3,19990201,1256401.657,223484.982,1074.872,1076.412,TRUE,chari,30,4,3,1,20,1.5,40,3,3,3,2,4,3,0,2.5,1,2,1,3,10,2,3,10,,,,,,,,,12,16,14,11,2,6,9,9,20,5,104,,,,,,,,,,,,
1503,15,3,3,19990201,1256088.419,222869.727,1071.522,1073.068,TRUE,chari,30,8,3,1,30,1,20,3,2,3,2,3,3,0,6,1,1,2,3,2,1,2,,,,,,,,,,16,18,12,10,5,4,7,12,13,0,97,,,,,,,,,,,,
1504,15,4,3,19990201,1256177.274,222650.841,1074.627,1076.175,TRUE,chari,20,5,0,4,20,3,40,0,2,3,2,4,3,0,1,0.5,0.1,3,8,1,3,1,,,,,,,,,,18,12,13,15,2,3,15,18,9,0,105,,,,,,,,,,,,
1505,15,5,3,19990201,1256157.079,222395.952,1069.724,1071.274,TRUE,chari,25,11,0,3,40,2.5,30,1,2,2,2,4,3,0,1.5,1.5,1,7,8,3,1,3,8,,,,,,,,,12,17,10,8,4,3,16,18,31,2,121,,,,,,,,,,,,
1601,16,1,3,19990201,1255118.036,223739.869,1076.101,1077.641,TRUE,keteb,30,10,0,8,40,6,50,3,2,1,3,0,3,0,6,2,4,2,4,8,4,0,,,,,,,,,,19,11,18,6,2,7,15,18,23,10,129,,,,,,,,,,,,
1602,16,2,3,19990201,1255276.026,223490.521,1073.285,1074.827,TRUE,keteb,25,8,1,4,40,7,70,1,2,1,3,0,3,0,9,1,8,4,4,10,3,0,,,,,,,,,,13,12,12,7,0,3,9,12,9,2,79,,,,,,,,,,,,
1603,16,3,3,19990201,1255153.62,223328.952,1073.471,1075.015,TRUE,keteb,80,10,2,6,40,5,50,3,2,2,3,0,3,0,3,1.5,4,2,4,8,4,1,,,,,,,,,,11,15,14,11,18,5,21,18,7,0,120,,,,,,,,,,,,
1604,16,4,3,19990201,1255022.517,222875.341,1072.181,1073.729,TRUE,keteb,60,16,0,6,50,6,40,0,2,1,3,0,3,0,1,1,6,0,2,10,4,1,,,,,,,,,,18,12,13,13,3,15,31,29,13,4,151,,,,,,,,,,,,
1605,16,5,3,19990201,1254966.396,222457.409,1071.367,1072.919,TRUE,keteb,80,20,2,3,20,4,30,3,2,1,3,0,3,0,3,1.5,1,5,5,8,3,1,,,,,,,,,,16,15,18,9,1,4,7,13,32,1,116,,,,,,,,,,,,
13001,130,1,3,19981120,1257482.398,229376.561,1145.956,1147.438,TRUE,chari,30,6,3,1,40,1,80,0,2,3,3,4,4,0,0.5,0.5,3,1,5,1,2,3,10,,,,,,,,,18,12,14,12,5,3,14,18,32,12,140,,,,,,,,,,,,
13002,130,2,3,19981120,1257398.239,229100.553,1132.313,1133.798,TRUE,chari,20,6,3,2,30,3,50,1,2,3,3,4,3,0,1,0.5,2,2,6,2,2,3,10,,,,,,,,,12,11,12,10,8,8,18,21,14,10,124,,,,,,,,,,,,
13003,130,3,3,19981120,1257350.237,228988.701,1139.709,1141.195,TRUE,chari,50,20,4,3,40,2,50,0,2,2,2,1,3,0,1.5,0.5,3,3,5,6,4,3,30,,,,,,,,,17,16,18,6,13,16,7,10,9,0,112,,,,,,,,,,,,
13004,130,4,3,19981120,1257188.927,228356.831,1118.468,1119.961,TRUE,chari,25,10,2,1,30,2,50,0,2,2,3,4,3,0,3,2,4,2,3,3,3,3,20,,,,,,,,,14,18,12,10,6,9,12,13,21,0,115,,,,,,,,,,,,
13005,130,5,3,19981120,1256956.907,228107.274,1121.476,1122.973,TRUE,chari,25,10,3,3,60,2,50,0,2,2,3,3,3,0,4,3,1,2,5,5,2,3,15,,,,,,,,,9,8,6,5,3,6,23,25,23,5,113,,,,,,,,,,,,
