Introduction : guppi.html : c_intro.html
News : guppi-news.html : c_news.html
Features : guppi-features.html : c_features.html
Screen Shots : guppi-screenshots.html : c_screenshot.html
History : guppi-history.html : c_history.html
Getting Guppi : guppi-get.html : c_get.html
Contact Information : guppi-contact.html : c_contact.html
Developers : guppi-developers.html : c_developers.html
Other Plot Programs : guppi-alternatives.html : c_alternatives.html
Interesting Links : guppi-links.html : c_links.html
Other Guppis : guppi-others.html : c_others.html
